0  POLY 1 0:0:200:200			0:0:0:255
1  POLY 1 9:239:236:200			0:0:0:255
2  POLY 1 186:241:167:200		0:0:0:255	
3  POLY 1 232:215:125:200		0:0:0:255
4  POLY 1 161:67:0:200 			0:0:0:255    
5  POLY 1 130:30:30:200 		0:0:0:255      
6  POLY 1 110:110:110:200 		0:0:0:255
7  POLY 1 255:255:255:200		0:0:0:255 
8  POLY 1 0:0:200:200			0:0:0:255
9  POLY 1 9:239:236:200			0:0:0:255
10  POLY 1 186:241:167:200		0:0:0:255	
11 POLY 1 232:215:125:200		0:0:0:255
12  POLY 1 161:67:0:200 		0:0:0:255    
13  POLY 1 130:30:30:200 		0:0:0:255      
14  POLY 1 110:110:110:200 		0:0:0:255
15  POLY 1 255:255:255:200		0:0:0:255 
16  POLY 1 0:0:200:200			0:0:0:255
17  POLY 1 9:239:236:200		0:0:0:255
17  POLY 1 186:241:167:200		0:0:0:255	
19  POLY 1 232:215:125:200		0:0:0:255
20  POLY 1 161:67:0:200 		0:0:0:255    
21  POLY 1 130:30:30:200 		0:0:0:255      
22  POLY 1 110:110:110:200 		0:0:0:255
23  POLY 1 255:255:255:200		0:0:0:255 
